10 14
1 1 1 1 1 1 1 1 1 1 1 1 1 1
1 0 0 0 0 1 0 0 0 0 0 1 1 1
1 0 0 0 0 1 0 0 0 0 0 0 0 1
1 0 0 0 0 1 0 1 1 1 1 0 0 1
1 0 0 0 0 0 0 0 0 1 1 0 0 1
1 0 0 0 0 1 0 1 0 0 0 0 1 1
1 1 1 1 1 1 0 1 1 0 0 0 0 1
1 1 1 0 0 0 0 0 0 0 0 0 0 1
1 1 1 0 0 0 0 1 0 0 0 0 0 1
1 1 1 1 1 1 1 1 1 1 1 1 1 1
10
2 7
2 10
3 6
5 10
6 9
6 11
7 4
7 7
7 9
7 11
1 1
2 1
3 1
4 1
5 1
1 2
2 2
3 2
4 2
5 2
4 7